%YAML 1.1
%TAG !u! tag:unity3d.com,2011:
--- !u!74 &7400000
AnimationClip:
  m_ObjectHideFlags: 0
  m_CorrespondingSourceObject: {fileID: 0}
  m_PrefabInstance: {fileID: 0}
  m_PrefabAsset: {fileID: 0}
  m_Name: GetStartedLoopNew
  serializedVersion: 6
  m_Legacy: 0
  m_Compressed: 0
  m_UseHighQualityCurve: 1
  m_RotationCurves: []
  m_CompressedRotationCurves: []
  m_EulerCurves: []
  m_PositionCurves: []
  m_ScaleCurves: []
  m_FloatCurves: []
  m_PPtrCurves:
  - curve:
    - time: 0
      value: {fileID: 21300000, guid: c17010716e1394c4fb0df92fefe94fd1, type: 3}
    - time: 0.016666668
      value: {fileID: 21300000, guid: 286488a3dffd1044d84c355c0df4b1ad, type: 3}
    - time: 0.033333335
      value: {fileID: 21300000, guid: 350842b7e0852b14aaae9484e5fe323e, type: 3}
    - time: 0.05
      value: {fileID: 21300000, guid: 9840d691863f36740bd991f16e46ecef, type: 3}
    - time: 0.06666667
      value: {fileID: 21300000, guid: b29c0d3427bdc434b8430cf06e35399f, type: 3}
    - time: 0.083333336
      value: {fileID: 21300000, guid: eb6d623243ef9f74782fb21b3d56678a, type: 3}
    - time: 0.1
      value: {fileID: 21300000, guid: 1ea79321294039e49aa54152001dce5d, type: 3}
    - time: 0.11666667
      value: {fileID: 21300000, guid: a058bb8967894ba4aa10a8cb125ab9ed, type: 3}
    - time: 0.13333334
      value: {fileID: 21300000, guid: 4721d2d96f039824396d9537bce2717f, type: 3}
    - time: 0.15
      value: {fileID: 21300000, guid: eae8cf6d378b48c46ada526fc96442c6, type: 3}
    - time: 0.16666667
      value: {fileID: 21300000, guid: 67db3a7fa69c31c4b95127f3b284ac31, type: 3}
    - time: 0.18333334
      value: {fileID: 21300000, guid: 76f7b270aaf37d04c90cd01fd76f5d37, type: 3}
    - time: 0.2
      value: {fileID: 21300000, guid: 5e47103f22cadd745bf61fa9f8bb75db, type: 3}
    - time: 0.21666667
      value: {fileID: 21300000, guid: d859a1ec8832fba46b7f744bffa3b9e8, type: 3}
    - time: 0.23333333
      value: {fileID: 21300000, guid: f2ac12ae7c8ff6a41883328ddbed5879, type: 3}
    - time: 0.25
      value: {fileID: 21300000, guid: e4262bb487201dd499d2f942ce73eb0a, type: 3}
    - time: 0.26666668
      value: {fileID: 21300000, guid: 5f2d658d16307724083bab05338b4c52, type: 3}
    - time: 0.28333333
      value: {fileID: 21300000, guid: 9531d2b06caf4fc438f35707e58c0595, type: 3}
    - time: 0.3
      value: {fileID: 21300000, guid: 258c7a0cfb58e0640a3bcd3979bf16af, type: 3}
    - time: 0.31666666
      value: {fileID: 21300000, guid: 41da4c953e1d5714ab297500d0a865af, type: 3}
    - time: 0.33333334
      value: {fileID: 21300000, guid: dd9520570fdde5440964eacd9deb5b47, type: 3}
    - time: 0.35
      value: {fileID: 21300000, guid: 36f9526bfb71e3643b307a0961d571d9, type: 3}
    - time: 0.36666667
      value: {fileID: 21300000, guid: d3a96a60dd502334fb80770e04caa2c2, type: 3}
    - time: 0.38333333
      value: {fileID: 21300000, guid: 73683df208d4e9f428f9ab254c63775b, type: 3}
    - time: 0.4
      value: {fileID: 21300000, guid: 2a73bd8fef505724a93b58fe7fd9e0d0, type: 3}
    - time: 0.41666666
      value: {fileID: 21300000, guid: 6775da405fe430647afd11541439a1c7, type: 3}
    - time: 0.43333334
      value: {fileID: 21300000, guid: f462d50ccd743454298372a29d8e2f90, type: 3}
    - time: 0.45
      value: {fileID: 21300000, guid: e9c15a1a6b8b9524290d9d6a255e77b7, type: 3}
    - time: 0.46666667
      value: {fileID: 21300000, guid: a276d279b0d49ac45a0a757d28381b93, type: 3}
    - time: 0.48333332
      value: {fileID: 21300000, guid: f5281b949435a7340a37eb5c6ed45801, type: 3}
    - time: 0.5
      value: {fileID: 21300000, guid: 4f1781751fe660744af4419b343bcbda, type: 3}
    - time: 0.51666665
      value: {fileID: 21300000, guid: 7a049e602caf24745a10ef16540a2023, type: 3}
    - time: 0.53333336
      value: {fileID: 21300000, guid: 9cd27453b5294bb4fb99d228786d3789, type: 3}
    - time: 0.55
      value: {fileID: 21300000, guid: 31e5a1a3378125040bab905edb9c57d3, type: 3}
    - time: 0.56666666
      value: {fileID: 21300000, guid: 7d352a4f268e4324b9d77d67dd8e87bf, type: 3}
    - time: 0.5833333
      value: {fileID: 21300000, guid: 057ff0b3a50e6de44bbdf8a8168a6bde, type: 3}
    - time: 0.6
      value: {fileID: 21300000, guid: 52791ca5ec7a576459f5f2683814c117, type: 3}
    - time: 0.6166667
      value: {fileID: 21300000, guid: 68c752cfa829bad419df85e093dfb3a3, type: 3}
    - time: 0.6333333
      value: {fileID: 21300000, guid: 2461577ba10296145b025646ff543d75, type: 3}
    - time: 0.65
      value: {fileID: 21300000, guid: 4473bcdf92d76e04a951861242521f20, type: 3}
    - time: 0.6666667
      value: {fileID: 21300000, guid: e0fbe1ca8d28ff941b592934d7bb15c6, type: 3}
    - time: 0.68333334
      value: {fileID: 21300000, guid: 8257994e18679054a9a051ca340232a1, type: 3}
    - time: 0.7
      value: {fileID: 21300000, guid: b40c19ccbc681564cb93d5615b92478f, type: 3}
    - time: 0.71666664
      value: {fileID: 21300000, guid: ec4386f32a256c04384dcd7413ed5918, type: 3}
    - time: 0.73333335
      value: {fileID: 21300000, guid: dbc7b4040f641784c83a0cecfb2e3cb8, type: 3}
    - time: 0.75
      value: {fileID: 21300000, guid: 272d090f61e3394419770a44dfdcda80, type: 3}
    - time: 0.76666665
      value: {fileID: 21300000, guid: 75ab0d72628ae2c469f0d4f53baec4be, type: 3}
    - time: 0.78333336
      value: {fileID: 21300000, guid: dfc552bdb18ae0d489b3a7e768b3c17f, type: 3}
    - time: 0.8
      value: {fileID: 21300000, guid: 56820476fafb7124daea993f04b34ae0, type: 3}
    - time: 0.81666666
      value: {fileID: 21300000, guid: 4d15458027b1af540a24d3dc53a29c62, type: 3}
    - time: 0.8333333
      value: {fileID: 21300000, guid: 38d35855b54d22348a619e6d2716f664, type: 3}
    - time: 0.85
      value: {fileID: 21300000, guid: 23e24a58c692a0d4da52d255338cce9d, type: 3}
    - time: 0.8666667
      value: {fileID: 21300000, guid: 149570391160ce54f81e2bc397d01aed, type: 3}
    - time: 0.8833333
      value: {fileID: 21300000, guid: a99ee77aa097e31448a9682b1ecd815c, type: 3}
    - time: 0.9
      value: {fileID: 21300000, guid: f307af75ee34fc54791e20b51ea3e013, type: 3}
    - time: 0.9166667
      value: {fileID: 21300000, guid: d5f5397302ff96741bc6c8465eedf78f, type: 3}
    attribute: m_Sprite
    path: 
    classID: 114
    script: {fileID: -765806418, guid: f70555f144d8491a825f0804e09c671c, type: 3}
  m_SampleRate: 60
  m_WrapMode: 0
  m_Bounds:
    m_Center: {x: 0, y: 0, z: 0}
    m_Extent: {x: 0, y: 0, z: 0}
  m_ClipBindingConstant:
    genericBindings:
    - serializedVersion: 2
      path: 0
      attribute: 2015549526
      script: {fileID: -765806418, guid: f70555f144d8491a825f0804e09c671c, type: 3}
      typeID: 114
      customType: 0
      isPPtrCurve: 1
    pptrCurveMapping:
    - {fileID: 21300000, guid: c17010716e1394c4fb0df92fefe94fd1, type: 3}
    - {fileID: 21300000, guid: 286488a3dffd1044d84c355c0df4b1ad, type: 3}
    - {fileID: 21300000, guid: 350842b7e0852b14aaae9484e5fe323e, type: 3}
    - {fileID: 21300000, guid: 9840d691863f36740bd991f16e46ecef, type: 3}
    - {fileID: 21300000, guid: b29c0d3427bdc434b8430cf06e35399f, type: 3}
    - {fileID: 21300000, guid: eb6d623243ef9f74782fb21b3d56678a, type: 3}
    - {fileID: 21300000, guid: 1ea79321294039e49aa54152001dce5d, type: 3}
    - {fileID: 21300000, guid: a058bb8967894ba4aa10a8cb125ab9ed, type: 3}
    - {fileID: 21300000, guid: 4721d2d96f039824396d9537bce2717f, type: 3}
    - {fileID: 21300000, guid: eae8cf6d378b48c46ada526fc96442c6, type: 3}
    - {fileID: 21300000, guid: 67db3a7fa69c31c4b95127f3b284ac31, type: 3}
    - {fileID: 21300000, guid: 76f7b270aaf37d04c90cd01fd76f5d37, type: 3}
    - {fileID: 21300000, guid: 5e47103f22cadd745bf61fa9f8bb75db, type: 3}
    - {fileID: 21300000, guid: d859a1ec8832fba46b7f744bffa3b9e8, type: 3}
    - {fileID: 21300000, guid: f2ac12ae7c8ff6a41883328ddbed5879, type: 3}
    - {fileID: 21300000, guid: e4262bb487201dd499d2f942ce73eb0a, type: 3}
    - {fileID: 21300000, guid: 5f2d658d16307724083bab05338b4c52, type: 3}
    - {fileID: 21300000, guid: 9531d2b06caf4fc438f35707e58c0595, type: 3}
    - {fileID: 21300000, guid: 258c7a0cfb58e0640a3bcd3979bf16af, type: 3}
    - {fileID: 21300000, guid: 41da4c953e1d5714ab297500d0a865af, type: 3}
    - {fileID: 21300000, guid: dd9520570fdde5440964eacd9deb5b47, type: 3}
    - {fileID: 21300000, guid: 36f9526bfb71e3643b307a0961d571d9, type: 3}
    - {fileID: 21300000, guid: d3a96a60dd502334fb80770e04caa2c2, type: 3}
    - {fileID: 21300000, guid: 73683df208d4e9f428f9ab254c63775b, type: 3}
    - {fileID: 21300000, guid: 2a73bd8fef505724a93b58fe7fd9e0d0, type: 3}
    - {fileID: 21300000, guid: 6775da405fe430647afd11541439a1c7, type: 3}
    - {fileID: 21300000, guid: f462d50ccd743454298372a29d8e2f90, type: 3}
    - {fileID: 21300000, guid: e9c15a1a6b8b9524290d9d6a255e77b7, type: 3}
    - {fileID: 21300000, guid: a276d279b0d49ac45a0a757d28381b93, type: 3}
    - {fileID: 21300000, guid: f5281b949435a7340a37eb5c6ed45801, type: 3}
    - {fileID: 21300000, guid: 4f1781751fe660744af4419b343bcbda, type: 3}
    - {fileID: 21300000, guid: 7a049e602caf24745a10ef16540a2023, type: 3}
    - {fileID: 21300000, guid: 9cd27453b5294bb4fb99d228786d3789, type: 3}
    - {fileID: 21300000, guid: 31e5a1a3378125040bab905edb9c57d3, type: 3}
    - {fileID: 21300000, guid: 7d352a4f268e4324b9d77d67dd8e87bf, type: 3}
    - {fileID: 21300000, guid: 057ff0b3a50e6de44bbdf8a8168a6bde, type: 3}
    - {fileID: 21300000, guid: 52791ca5ec7a576459f5f2683814c117, type: 3}
    - {fileID: 21300000, guid: 68c752cfa829bad419df85e093dfb3a3, type: 3}
    - {fileID: 21300000, guid: 2461577ba10296145b025646ff543d75, type: 3}
    - {fileID: 21300000, guid: 4473bcdf92d76e04a951861242521f20, type: 3}
    - {fileID: 21300000, guid: e0fbe1ca8d28ff941b592934d7bb15c6, type: 3}
    - {fileID: 21300000, guid: 8257994e18679054a9a051ca340232a1, type: 3}
    - {fileID: 21300000, guid: b40c19ccbc681564cb93d5615b92478f, type: 3}
    - {fileID: 21300000, guid: ec4386f32a256c04384dcd7413ed5918, type: 3}
    - {fileID: 21300000, guid: dbc7b4040f641784c83a0cecfb2e3cb8, type: 3}
    - {fileID: 21300000, guid: 272d090f61e3394419770a44dfdcda80, type: 3}
    - {fileID: 21300000, guid: 75ab0d72628ae2c469f0d4f53baec4be, type: 3}
    - {fileID: 21300000, guid: dfc552bdb18ae0d489b3a7e768b3c17f, type: 3}
    - {fileID: 21300000, guid: 56820476fafb7124daea993f04b34ae0, type: 3}
    - {fileID: 21300000, guid: 4d15458027b1af540a24d3dc53a29c62, type: 3}
    - {fileID: 21300000, guid: 38d35855b54d22348a619e6d2716f664, type: 3}
    - {fileID: 21300000, guid: 23e24a58c692a0d4da52d255338cce9d, type: 3}
    - {fileID: 21300000, guid: 149570391160ce54f81e2bc397d01aed, type: 3}
    - {fileID: 21300000, guid: a99ee77aa097e31448a9682b1ecd815c, type: 3}
    - {fileID: 21300000, guid: f307af75ee34fc54791e20b51ea3e013, type: 3}
    - {fileID: 21300000, guid: d5f5397302ff96741bc6c8465eedf78f, type: 3}
  m_AnimationClipSettings:
    serializedVersion: 2
    m_AdditiveReferencePoseClip: {fileID: 0}
    m_AdditiveReferencePoseTime: 0
    m_StartTime: 0
    m_StopTime: 0.93333334
    m_OrientationOffsetY: 0
    m_Level: 0
    m_CycleOffset: 0
    m_HasAdditiveReferencePose: 0
    m_LoopTime: 1
    m_LoopBlend: 0
    m_LoopBlendOrientation: 0
    m_LoopBlendPositionY: 0
    m_LoopBlendPositionXZ: 0
    m_KeepOriginalOrientation: 0
    m_KeepOriginalPositionY: 1
    m_KeepOriginalPositionXZ: 0
    m_HeightFromFeet: 0
    m_Mirror: 0
  m_EditorCurves: []
  m_EulerEditorCurves: []
  m_HasGenericRootTransform: 0
  m_HasMotionFloatCurves: 0
  m_Events: []
