%YAML 1.1
%TAG !u! tag:unity3d.com,2011:
--- !u!74 &7400000
AnimationClip:
  m_ObjectHideFlags: 0
  m_CorrespondingSourceObject: {fileID: 0}
  m_PrefabInstance: {fileID: 0}
  m_PrefabAsset: {fileID: 0}
  m_Name: Intro
  serializedVersion: 6
  m_Legacy: 0
  m_Compressed: 0
  m_UseHighQualityCurve: 1
  m_RotationCurves: []
  m_CompressedRotationCurves: []
  m_EulerCurves: []
  m_PositionCurves: []
  m_ScaleCurves: []
  m_FloatCurves: []
  m_PPtrCurves:
  - curve:
    - time: 0
      value: {fileID: 21300000, guid: 2a4ff5b3955ce5a4a9ce7a7efe3b9ff0, type: 3}
    - time: 0.016666668
      value: {fileID: 21300000, guid: a5276e22fb50770499591d2311bd2b2e, type: 3}
    - time: 0.033333335
      value: {fileID: 21300000, guid: 958bd275952c66849ab4d21740c740b8, type: 3}
    - time: 0.05
      value: {fileID: 21300000, guid: 909b6dc196b0c114fb2ee8df815d7811, type: 3}
    - time: 0.06666667
      value: {fileID: 21300000, guid: 9ab140737d02b0e46bc1156e4ee38737, type: 3}
    - time: 0.083333336
      value: {fileID: 21300000, guid: c599fcb3c3da02b419777a0812a013be, type: 3}
    - time: 0.1
      value: {fileID: 21300000, guid: 28b2ebdb0071b23458bf18966da5b4df, type: 3}
    - time: 0.11666667
      value: {fileID: 21300000, guid: b85989b36e1e91d4591f63ca64688218, type: 3}
    - time: 0.13333334
      value: {fileID: 21300000, guid: 6dcc772b96120844497bdbc532dfdda3, type: 3}
    - time: 0.15
      value: {fileID: 21300000, guid: 4619472f8fe9f9a4c977f18f919443ba, type: 3}
    - time: 0.16666667
      value: {fileID: 21300000, guid: 80c00b5f23a4f0c4aa3dbf6cacf312ee, type: 3}
    - time: 0.18333334
      value: {fileID: 21300000, guid: 4be056a4ff8ee294eab2f46a98a59a46, type: 3}
    - time: 0.2
      value: {fileID: 21300000, guid: 8f5f4cc77db724142862f01f5aabe223, type: 3}
    - time: 0.21666667
      value: {fileID: 21300000, guid: e3f72cfe4c766b74c926fd1d08246530, type: 3}
    - time: 0.23333333
      value: {fileID: 21300000, guid: 2a26979dfe80cc747b9d5446c15b414f, type: 3}
    - time: 0.25
      value: {fileID: 21300000, guid: bc1e0f7c092334a40b221ddb18206854, type: 3}
    - time: 0.26666668
      value: {fileID: 21300000, guid: b1d5c9d9e1fc7924ab1922bee58da5f8, type: 3}
    - time: 0.28333333
      value: {fileID: 21300000, guid: 69c3146eeb0eb8446ba5acaf54ea9841, type: 3}
    - time: 0.3
      value: {fileID: 21300000, guid: d25a59a7fb120b94a85216ebe436f24a, type: 3}
    - time: 0.31666666
      value: {fileID: 21300000, guid: 8de1d318c5935564a9920559177819be, type: 3}
    - time: 0.33333334
      value: {fileID: 21300000, guid: aabb5e40a300a42409dfa2d077b17f3c, type: 3}
    - time: 0.35
      value: {fileID: 21300000, guid: 8d5e582528044d24c874bac46c0c6990, type: 3}
    - time: 0.36666667
      value: {fileID: 21300000, guid: dea6c82d10000714a9c22c7ebab4fb17, type: 3}
    - time: 0.38333333
      value: {fileID: 21300000, guid: a7a343606b760944a88549ae574ad870, type: 3}
    - time: 0.4
      value: {fileID: 21300000, guid: 2ef9c0b7a4867c44fbb5382d1fbfbc43, type: 3}
    - time: 0.41666666
      value: {fileID: 21300000, guid: 4917abe9f8eba264ab6fa2b8d2011a1d, type: 3}
    - time: 0.43333334
      value: {fileID: 21300000, guid: 0ac18fccd3ec1df4e94926de65d15888, type: 3}
    - time: 0.45
      value: {fileID: 21300000, guid: ce6c4a8f77bebd642a6c08eea3a738df, type: 3}
    - time: 0.46666667
      value: {fileID: 21300000, guid: b51dbad6ea154af4195515d0e212031a, type: 3}
    - time: 0.48333332
      value: {fileID: 21300000, guid: c6bca1db95d47f148806d77834ec6d32, type: 3}
    - time: 0.5
      value: {fileID: 21300000, guid: 1c4b9280230834e48b021c117820ba03, type: 3}
    - time: 0.51666665
      value: {fileID: 21300000, guid: 91920c4df2228864284a8ad13a406a5a, type: 3}
    - time: 0.53333336
      value: {fileID: 21300000, guid: a17f9d44acec08b489d175e1c2b1404a, type: 3}
    - time: 0.55
      value: {fileID: 21300000, guid: 00c817b160293f74db94ad1cb17cbcf8, type: 3}
    - time: 0.56666666
      value: {fileID: 21300000, guid: d356fe828a5f7694e9ced0373284ac9b, type: 3}
    - time: 0.5833333
      value: {fileID: 21300000, guid: 2fcf1b5b41cdea94590f4429661f2cd0, type: 3}
    - time: 0.6
      value: {fileID: 21300000, guid: 2a1e1c35daaca8645ba2e49647459aed, type: 3}
    - time: 0.6166667
      value: {fileID: 21300000, guid: 5d7caa58c205c714eb138637603002f5, type: 3}
    - time: 0.6333333
      value: {fileID: 21300000, guid: 41c972f757e827e47b2c9a56628f40a8, type: 3}
    - time: 0.65
      value: {fileID: 21300000, guid: bdcd05407b123dd428056408e3aa03df, type: 3}
    - time: 0.6666667
      value: {fileID: 21300000, guid: 5ff04c64bf8b28446a1f5edcd438d50e, type: 3}
    - time: 0.68333334
      value: {fileID: 21300000, guid: b1d8036f0a4ab5c41a6a8cc57249ef0b, type: 3}
    - time: 0.7
      value: {fileID: 21300000, guid: 25e9bb5fa794cc9449449dabe66f3547, type: 3}
    - time: 0.71666664
      value: {fileID: 21300000, guid: fbf65620070352849b5b37b7d6b818b3, type: 3}
    - time: 0.73333335
      value: {fileID: 21300000, guid: 8fc8e19c0fbac3a45a3f664692b12d43, type: 3}
    - time: 0.75
      value: {fileID: 21300000, guid: a43206ecdcacd2c4db2d9125b912b17d, type: 3}
    - time: 0.76666665
      value: {fileID: 21300000, guid: 287e35cfb354ea74aab2742061a078b5, type: 3}
    - time: 0.78333336
      value: {fileID: 21300000, guid: a1d557b324536b3449a1b7afebd4c8f3, type: 3}
    - time: 0.8
      value: {fileID: 21300000, guid: 3606b57c436ee8b47aa0e985954b74e4, type: 3}
    - time: 0.81666666
      value: {fileID: 21300000, guid: f6ac4b88af843d94b8dba21cf7271552, type: 3}
    - time: 0.8333333
      value: {fileID: 21300000, guid: 31cfac30c500d604e8ae8a6af422ab12, type: 3}
    - time: 0.85
      value: {fileID: 21300000, guid: 5905531394528b6489b774b0d18cf50d, type: 3}
    - time: 0.8666667
      value: {fileID: 21300000, guid: 49d0208a77bfe6b499bed9ff0f215c09, type: 3}
    - time: 0.8833333
      value: {fileID: 21300000, guid: f9a91dc82726d404eb95fe0bae85cfe3, type: 3}
    - time: 0.9
      value: {fileID: 21300000, guid: b6da08b2beaf72043be798d24689037e, type: 3}
    - time: 0.9166667
      value: {fileID: 21300000, guid: fbbd9f24e526a8244811e212cd97ecf0, type: 3}
    - time: 0.93333334
      value: {fileID: 21300000, guid: d82c8393fc1794342b9c9468fd2a4af3, type: 3}
    - time: 0.95
      value: {fileID: 21300000, guid: 3da356d53f1ee8341938e0bb8e76af5b, type: 3}
    - time: 0.96666664
      value: {fileID: 21300000, guid: a0338209e2dfea641a769680f7033bb2, type: 3}
    - time: 0.98333335
      value: {fileID: 21300000, guid: 2567b7db6a3e774499297a2668ac0fba, type: 3}
    - time: 1
      value: {fileID: 21300000, guid: 219a270a3d00a9c41a776b5f3ce2c9d8, type: 3}
    - time: 1.0166667
      value: {fileID: 21300000, guid: 61b62bcad2a278b4b90fe8572d3813c7, type: 3}
    - time: 1.0333333
      value: {fileID: 21300000, guid: b827569fb09b69b4ebf441085a94c3b4, type: 3}
    - time: 1.05
      value: {fileID: 21300000, guid: d6fcc1719aee67f41b81151e04877261, type: 3}
    - time: 1.0666667
      value: {fileID: 21300000, guid: bfe2df70b7df98f4b911df128fb32775, type: 3}
    - time: 1.0833334
      value: {fileID: 21300000, guid: 2443afbc1acfd194cbff8a551c7593c0, type: 3}
    - time: 1.1
      value: {fileID: 21300000, guid: 31a1faaff15c4414a842897811c2fb13, type: 3}
    - time: 1.1166667
      value: {fileID: 21300000, guid: 7e759c7cec0e57c459dd827cfed136ff, type: 3}
    - time: 1.1333333
      value: {fileID: 21300000, guid: 7161b7cf271e02b4a8396b31755953ba, type: 3}
    - time: 1.15
      value: {fileID: 21300000, guid: 0b68ee1d230c39445b0270a5d456ba8f, type: 3}
    - time: 1.1666666
      value: {fileID: 21300000, guid: 61fd78ec8865b6a49b300458f1998b85, type: 3}
    - time: 1.1833333
      value: {fileID: 21300000, guid: cd58fcef50fb0f542896fd50aacfec75, type: 3}
    - time: 1.2
      value: {fileID: 21300000, guid: 68b408331afa14a4e9650de803c3adc8, type: 3}
    - time: 1.2166667
      value: {fileID: 21300000, guid: 237275a2849cef149bb9da1bcb7c5eec, type: 3}
    - time: 1.2333333
      value: {fileID: 21300000, guid: d807a6cd68383c64e9e09d9f38e67a22, type: 3}
    - time: 1.25
      value: {fileID: 21300000, guid: 7af2cb787bc55954b89a3271121af7dd, type: 3}
    - time: 1.2666667
      value: {fileID: 21300000, guid: 73a37efd57aaa984fa38f6bfbb8a6057, type: 3}
    - time: 1.2833333
      value: {fileID: 21300000, guid: 99b8134c139638c43b9395384e1020d1, type: 3}
    - time: 1.3
      value: {fileID: 21300000, guid: fe2e90899232da742ae9c2bd66c89fd8, type: 3}
    - time: 1.3166667
      value: {fileID: 21300000, guid: e3f13b706d34c7a42be8fd3a708a6504, type: 3}
    - time: 1.3333334
      value: {fileID: 21300000, guid: 7743209fedbef98479293ab69935be7f, type: 3}
    - time: 1.35
      value: {fileID: 21300000, guid: c00508d52f6b96341aa90be2a8b37c4e, type: 3}
    - time: 1.3666667
      value: {fileID: 21300000, guid: 2e5339063a1d85349836b87bbf17bb55, type: 3}
    - time: 1.3833333
      value: {fileID: 21300000, guid: fa78b776cc72b5b4b9341ddc002eefe6, type: 3}
    - time: 1.4
      value: {fileID: 21300000, guid: fb0e2dd20ae26f144ae67969f2ff43d5, type: 3}
    - time: 1.4166666
      value: {fileID: 21300000, guid: a24bb62ca206ed14b90a1f138b55ac06, type: 3}
    - time: 1.4333333
      value: {fileID: 21300000, guid: 6addd7e80aee92f42a5c334c2fb42df6, type: 3}
    - time: 1.45
      value: {fileID: 21300000, guid: b89458fd9f81a5540ae0a20d4fd09d41, type: 3}
    - time: 1.4666667
      value: {fileID: 21300000, guid: 2cfcae8bde0d6ea4fabf1a2259de92a9, type: 3}
    - time: 1.4833333
      value: {fileID: 21300000, guid: 860836d664da7af429009cb2a5cce266, type: 3}
    - time: 1.5
      value: {fileID: 21300000, guid: 017275f47d03f5e42af6d831782526c1, type: 3}
    - time: 1.5166667
      value: {fileID: 21300000, guid: 2d702c8b316c9a0429ae118e8a43acb3, type: 3}
    - time: 1.5333333
      value: {fileID: 21300000, guid: 28534387ffb5c93498147693f22a3fe0, type: 3}
    - time: 1.55
      value: {fileID: 21300000, guid: 918953cc734539f47b3621a671a9607e, type: 3}
    - time: 1.5666667
      value: {fileID: 21300000, guid: 957e8dd59adac6546bb33566d0d7a752, type: 3}
    - time: 1.5833334
      value: {fileID: 21300000, guid: c655951da38d5bc49b6c023a2f255c8b, type: 3}
    - time: 1.6
      value: {fileID: 21300000, guid: 792039ca9a62fd24aa819b7ad79cbc28, type: 3}
    - time: 1.6166667
      value: {fileID: 21300000, guid: b61ed16487b37494ead745d0e04e9fda, type: 3}
    - time: 1.6333333
      value: {fileID: 21300000, guid: 3908dbf1a40ae9f48a07d738cb63fdd1, type: 3}
    - time: 1.65
      value: {fileID: 21300000, guid: 9dcc567ee0a33e449bb5e6262aee64d5, type: 3}
    - time: 1.6666666
      value: {fileID: 21300000, guid: 7a3a7876c25099a48a5bf8cff6205646, type: 3}
    - time: 1.6833333
      value: {fileID: 21300000, guid: 85a8b000eca267d4fb37913f9a58b79e, type: 3}
    - time: 1.7
      value: {fileID: 21300000, guid: 8d89dde87cc01ea45a223d37a7612c10, type: 3}
    - time: 1.7166667
      value: {fileID: 21300000, guid: 94f243002c1d3ce40a4e55ad20b3203a, type: 3}
    - time: 1.7333333
      value: {fileID: 21300000, guid: a72d4362190104547ae27cd41de1d12f, type: 3}
    - time: 1.75
      value: {fileID: 21300000, guid: aabaccd448589ac4c8908811dc885b0f, type: 3}
    - time: 1.7666667
      value: {fileID: 21300000, guid: b3c1701d3eb0aad4388ac05c617d0c80, type: 3}
    - time: 1.7833333
      value: {fileID: 21300000, guid: 42c78f2181cfe0c47af42988f41f9d2f, type: 3}
    - time: 1.8
      value: {fileID: 21300000, guid: ade9726db70406543af22412754f3412, type: 3}
    - time: 1.8166667
      value: {fileID: 21300000, guid: f533072b8cdba0843a1873f936b8334c, type: 3}
    - time: 1.8333334
      value: {fileID: 21300000, guid: b64483b5674a8df4eadaae9c4527ca7c, type: 3}
    - time: 1.85
      value: {fileID: 21300000, guid: 4da77bd7d8c469142adf0a7b458f4215, type: 3}
    - time: 1.8666667
      value: {fileID: 21300000, guid: 46d675cfa8ce58e458dc280dd3429f22, type: 3}
    - time: 1.8833333
      value: {fileID: 21300000, guid: a67a0d191e146494e941e5937d647c62, type: 3}
    - time: 1.9
      value: {fileID: 21300000, guid: b48c49ce00c62c548bfc3d78ba14db4d, type: 3}
    - time: 1.9166666
      value: {fileID: 21300000, guid: 8fbb7c04ee453464f821f50399764ffd, type: 3}
    - time: 1.9333333
      value: {fileID: 21300000, guid: 9bebc6d3297a296459fd55af6ed36773, type: 3}
    - time: 1.95
      value: {fileID: 21300000, guid: 03c955169d8743a4881a6a7934d04ecb, type: 3}
    - time: 1.9666667
      value: {fileID: 21300000, guid: fdeec72b26d37e24bbc55e15a938a72a, type: 3}
    - time: 1.9833333
      value: {fileID: 21300000, guid: 190daf0b9679aad48adba8c467c14c4f, type: 3}
    - time: 2
      value: {fileID: 21300000, guid: 052e196f111438a42b71df112c85b121, type: 3}
    - time: 2.0166667
      value: {fileID: 21300000, guid: acd98170e01fea84b98300502911274a, type: 3}
    - time: 2.0333333
      value: {fileID: 21300000, guid: d5f7513aa42fa5c448ad23e7d13c0eff, type: 3}
    - time: 2.05
      value: {fileID: 21300000, guid: 844161d7a4d12c141a3e4eb4bf762a32, type: 3}
    - time: 2.0666666
      value: {fileID: 21300000, guid: 9375b09da53ecdc4fa42cf08cd19520a, type: 3}
    - time: 2.0833333
      value: {fileID: 21300000, guid: 5aa9336ad3b4cb84d8ba6e3d4c30373b, type: 3}
    - time: 2.1
      value: {fileID: 21300000, guid: 2dcaaca1abfe0544e9f8b0f0a1916bf8, type: 3}
    - time: 2.1166666
      value: {fileID: 21300000, guid: eb00f4795b0ce29439218d1b646feee2, type: 3}
    - time: 2.1333334
      value: {fileID: 21300000, guid: 9a24257191925ec48a6ede33b34681a0, type: 3}
    - time: 2.15
      value: {fileID: 21300000, guid: db5fd1086bce48440a9c2251dc462298, type: 3}
    - time: 2.1666667
      value: {fileID: 21300000, guid: 709a6d7b2d2a2da4ba19c4b241a9847a, type: 3}
    - time: 2.1833334
      value: {fileID: 21300000, guid: 3df699dc4f265854abef6b864a3d7d4c, type: 3}
    - time: 2.2
      value: {fileID: 21300000, guid: 7217ab63dcb4c2345956345f22c2d40a, type: 3}
    - time: 2.2166667
      value: {fileID: 21300000, guid: 64d843e4ee6a2f94ca27fde4a7066e23, type: 3}
    - time: 2.2333333
      value: {fileID: 21300000, guid: 91324aef8b5d7dc43aa98938463a7424, type: 3}
    - time: 2.25
      value: {fileID: 21300000, guid: 76cf1f5438ecd3249a59d5628de6b89f, type: 3}
    - time: 2.2666667
      value: {fileID: 21300000, guid: a30d916df5912a94aa609229f9a94c0b, type: 3}
    - time: 2.2833333
      value: {fileID: 21300000, guid: dba56e4bf1fb7b749b6edf3e3231e37b, type: 3}
    - time: 2.3
      value: {fileID: 21300000, guid: f44ab9337efc5a44f811c0df4b0e19f9, type: 3}
    - time: 2.3166666
      value: {fileID: 21300000, guid: f386e8d51a88fc141abd288882b98a22, type: 3}
    - time: 2.3333333
      value: {fileID: 21300000, guid: ea28142c8c773814a83c038bc6077d0a, type: 3}
    - time: 2.35
      value: {fileID: 21300000, guid: 04169ed57cc3e514f9944a983c955ffe, type: 3}
    - time: 2.3666666
      value: {fileID: 21300000, guid: c60344cde27d12e47bff08027d40e7dc, type: 3}
    - time: 2.3833334
      value: {fileID: 21300000, guid: 9474df51d2261e049a8541f9737a2dce, type: 3}
    - time: 2.4
      value: {fileID: 21300000, guid: 244f930ff0297154ab9dbb59231da68c, type: 3}
    - time: 2.4166667
      value: {fileID: 21300000, guid: d0b00119cd222e74a971a107bf00cb54, type: 3}
    - time: 2.4333334
      value: {fileID: 21300000, guid: 59036deb659412845b1773bb843f0151, type: 3}
    - time: 2.45
      value: {fileID: 21300000, guid: 5664ea86575bf5946a64acda19de944f, type: 3}
    - time: 2.4666667
      value: {fileID: 21300000, guid: 43984a59b84d340459205aebc3b0ffa6, type: 3}
    - time: 2.4833333
      value: {fileID: 21300000, guid: c6d86d8807df3aa4d852db22f01d6e62, type: 3}
    - time: 2.5
      value: {fileID: 21300000, guid: 1cc8ecc20d382dc4f94a5b1a03a9e60d, type: 3}
    - time: 2.5166667
      value: {fileID: 21300000, guid: 917e5dc2611e08f4598b679b1ea8e566, type: 3}
    - time: 2.5333333
      value: {fileID: 21300000, guid: 9e1248ade598a5e4d8f3eab06386f5f1, type: 3}
    - time: 2.55
      value: {fileID: 21300000, guid: 7a2e013b4e4aad943b93f6a4dd58123d, type: 3}
    - time: 2.5666666
      value: {fileID: 21300000, guid: ae18cb400b7fbd34d9659325b9d63fbc, type: 3}
    - time: 2.5833333
      value: {fileID: 21300000, guid: 152f646881d51e242a967a398b1e3ff1, type: 3}
    - time: 2.6
      value: {fileID: 21300000, guid: e5a997b7e6a26a7469211c67a35512aa, type: 3}
    - time: 2.6166666
      value: {fileID: 21300000, guid: e3769a0aa0a22694299f1f74bb67d510, type: 3}
    - time: 2.6333334
      value: {fileID: 21300000, guid: 890b220797f05494ab0573899d390c6a, type: 3}
    - time: 2.65
      value: {fileID: 21300000, guid: d90862512201e5c418d434db8f210649, type: 3}
    - time: 2.6666667
      value: {fileID: 21300000, guid: 3270494571656e64a9691866fb924082, type: 3}
    - time: 2.6833334
      value: {fileID: 21300000, guid: 693a8839561dd6d448dd8103716dad55, type: 3}
    - time: 2.7
      value: {fileID: 21300000, guid: ffcc91eb824caa64ea13d3ea3faea186, type: 3}
    - time: 2.7166667
      value: {fileID: 21300000, guid: 9633d4244a80ef5488b5304c899208e0, type: 3}
    - time: 2.7333333
      value: {fileID: 21300000, guid: 5427f44415a3a7249858dba6887d7dd3, type: 3}
    - time: 2.75
      value: {fileID: 21300000, guid: 588a2e53560c2554f9faf4e1a88ba9cc, type: 3}
    - time: 2.7666667
      value: {fileID: 21300000, guid: f3843ad7ae78a8a48b0152d54fe48731, type: 3}
    - time: 2.7833333
      value: {fileID: 21300000, guid: a6ff2ffbb27b3c640bb0ff1021645f90, type: 3}
    - time: 2.8
      value: {fileID: 21300000, guid: 4117287425a5ccc4b8df97065ccc71ee, type: 3}
    - time: 2.8166666
      value: {fileID: 21300000, guid: dc5dba3117f196d4c94c8846f647925d, type: 3}
    - time: 2.8333333
      value: {fileID: 21300000, guid: 28e79110603f829448a794eaffee992b, type: 3}
    - time: 2.85
      value: {fileID: 21300000, guid: 00699ac88fe5f834d953991f6d0e2dd3, type: 3}
    - time: 2.8666666
      value: {fileID: 21300000, guid: fb5071c05ae1b0b45b6f19d0369343a7, type: 3}
    - time: 2.8833334
      value: {fileID: 21300000, guid: b2e87bae3aaddd14a83cc395f38bc3fc, type: 3}
    - time: 2.9
      value: {fileID: 21300000, guid: 425eeb67c750342439ad8a79b7e9e26f, type: 3}
    - time: 2.9166667
      value: {fileID: 21300000, guid: 80751073ad7e1c640b6914516ff9deae, type: 3}
    - time: 2.9333334
      value: {fileID: 21300000, guid: 127f0c2c6d788294a83ea8414b68bd4b, type: 3}
    - time: 2.95
      value: {fileID: 21300000, guid: 3b1642cff4d97e1499708da6bc2da8d5, type: 3}
    - time: 2.9666667
      value: {fileID: 21300000, guid: 613b7c9520e5f7c4991635a9237b1b40, type: 3}
    - time: 2.9833333
      value: {fileID: 21300000, guid: da2cee73870a3464bb7438b39f0e8f59, type: 3}
    - time: 3
      value: {fileID: 21300000, guid: b845238c47ca0e843acf5e8446cf849f, type: 3}
    - time: 3.0166667
      value: {fileID: 21300000, guid: 31b93535d3bd3cb4090eed998101c110, type: 3}
    - time: 3.0333333
      value: {fileID: 21300000, guid: 1e2e8c252f4076240bc09338063bc462, type: 3}
    - time: 3.05
      value: {fileID: 21300000, guid: b9b4a6471ba0c0848b1598dc0e170871, type: 3}
    - time: 3.0666666
      value: {fileID: 21300000, guid: 66696121ba8c95c45bcc5557ddfe1786, type: 3}
    - time: 3.0833333
      value: {fileID: 21300000, guid: 32063669235fa754691242d483ef8d84, type: 3}
    - time: 3.1
      value: {fileID: 21300000, guid: 670522703838fa14397a6598897569a0, type: 3}
    - time: 3.1166666
      value: {fileID: 21300000, guid: b6ca5379fc07dcc489317fb19fe7ebd0, type: 3}
    - time: 3.1333334
      value: {fileID: 21300000, guid: 1d06506cd3e41984db7437c6f6f51fea, type: 3}
    - time: 3.15
      value: {fileID: 21300000, guid: 60e33dce0c22abd4284ecb989573ce8a, type: 3}
    - time: 3.1666667
      value: {fileID: 21300000, guid: 6cc3a818be674564ba35760e8448f46d, type: 3}
    - time: 3.1833334
      value: {fileID: 21300000, guid: ffda4d022ca166548af9483e17936bb9, type: 3}
    - time: 3.2
      value: {fileID: 21300000, guid: 7673c0d5b04d61548a40475b45b5ccd4, type: 3}
    - time: 3.2166667
      value: {fileID: 21300000, guid: 741d2bf9bb4cefa419b51e6fbdcba82b, type: 3}
    - time: 3.2333333
      value: {fileID: 21300000, guid: f4437f0c8970a104ca330a50aaeb9215, type: 3}
    - time: 3.25
      value: {fileID: 21300000, guid: abcc8520b42804749bd294d13c8cb28e, type: 3}
    - time: 3.2666667
      value: {fileID: 21300000, guid: 4ace798be78da504eb7be41d9c48aab5, type: 3}
    - time: 3.2833333
      value: {fileID: 21300000, guid: a5feca8a84369bf47a4067bb546a2299, type: 3}
    - time: 3.3
      value: {fileID: 21300000, guid: be2e2295e3c705143902dc0b8f643dc3, type: 3}
    - time: 3.3166666
      value: {fileID: 21300000, guid: fabeb7ee14344f344b97bc6a8e0a482a, type: 3}
    - time: 3.3333333
      value: {fileID: 21300000, guid: b078e7dc8d1c0624b846579faaf2b10f, type: 3}
    attribute: m_Sprite
    path: 
    classID: 212
    script: {fileID: 0}
  m_SampleRate: 60
  m_WrapMode: 0
  m_Bounds:
    m_Center: {x: 0, y: 0, z: 0}
    m_Extent: {x: 0, y: 0, z: 0}
  m_ClipBindingConstant:
    genericBindings:
    - serializedVersion: 2
      path: 0
      attribute: 0
      script: {fileID: 0}
      typeID: 212
      customType: 23
      isPPtrCurve: 1
    pptrCurveMapping:
    - {fileID: 21300000, guid: 2a4ff5b3955ce5a4a9ce7a7efe3b9ff0, type: 3}
    - {fileID: 21300000, guid: a5276e22fb50770499591d2311bd2b2e, type: 3}
    - {fileID: 21300000, guid: 958bd275952c66849ab4d21740c740b8, type: 3}
    - {fileID: 21300000, guid: 909b6dc196b0c114fb2ee8df815d7811, type: 3}
    - {fileID: 21300000, guid: 9ab140737d02b0e46bc1156e4ee38737, type: 3}
    - {fileID: 21300000, guid: c599fcb3c3da02b419777a0812a013be, type: 3}
    - {fileID: 21300000, guid: 28b2ebdb0071b23458bf18966da5b4df, type: 3}
    - {fileID: 21300000, guid: b85989b36e1e91d4591f63ca64688218, type: 3}
    - {fileID: 21300000, guid: 6dcc772b96120844497bdbc532dfdda3, type: 3}
    - {fileID: 21300000, guid: 4619472f8fe9f9a4c977f18f919443ba, type: 3}
    - {fileID: 21300000, guid: 80c00b5f23a4f0c4aa3dbf6cacf312ee, type: 3}
    - {fileID: 21300000, guid: 4be056a4ff8ee294eab2f46a98a59a46, type: 3}
    - {fileID: 21300000, guid: 8f5f4cc77db724142862f01f5aabe223, type: 3}
    - {fileID: 21300000, guid: e3f72cfe4c766b74c926fd1d08246530, type: 3}
    - {fileID: 21300000, guid: 2a26979dfe80cc747b9d5446c15b414f, type: 3}
    - {fileID: 21300000, guid: bc1e0f7c092334a40b221ddb18206854, type: 3}
    - {fileID: 21300000, guid: b1d5c9d9e1fc7924ab1922bee58da5f8, type: 3}
    - {fileID: 21300000, guid: 69c3146eeb0eb8446ba5acaf54ea9841, type: 3}
    - {fileID: 21300000, guid: d25a59a7fb120b94a85216ebe436f24a, type: 3}
    - {fileID: 21300000, guid: 8de1d318c5935564a9920559177819be, type: 3}
    - {fileID: 21300000, guid: aabb5e40a300a42409dfa2d077b17f3c, type: 3}
    - {fileID: 21300000, guid: 8d5e582528044d24c874bac46c0c6990, type: 3}
    - {fileID: 21300000, guid: dea6c82d10000714a9c22c7ebab4fb17, type: 3}
    - {fileID: 21300000, guid: a7a343606b760944a88549ae574ad870, type: 3}
    - {fileID: 21300000, guid: 2ef9c0b7a4867c44fbb5382d1fbfbc43, type: 3}
    - {fileID: 21300000, guid: 4917abe9f8eba264ab6fa2b8d2011a1d, type: 3}
    - {fileID: 21300000, guid: 0ac18fccd3ec1df4e94926de65d15888, type: 3}
    - {fileID: 21300000, guid: ce6c4a8f77bebd642a6c08eea3a738df, type: 3}
    - {fileID: 21300000, guid: b51dbad6ea154af4195515d0e212031a, type: 3}
    - {fileID: 21300000, guid: c6bca1db95d47f148806d77834ec6d32, type: 3}
    - {fileID: 21300000, guid: 1c4b9280230834e48b021c117820ba03, type: 3}
    - {fileID: 21300000, guid: 91920c4df2228864284a8ad13a406a5a, type: 3}
    - {fileID: 21300000, guid: a17f9d44acec08b489d175e1c2b1404a, type: 3}
    - {fileID: 21300000, guid: 00c817b160293f74db94ad1cb17cbcf8, type: 3}
    - {fileID: 21300000, guid: d356fe828a5f7694e9ced0373284ac9b, type: 3}
    - {fileID: 21300000, guid: 2fcf1b5b41cdea94590f4429661f2cd0, type: 3}
    - {fileID: 21300000, guid: 2a1e1c35daaca8645ba2e49647459aed, type: 3}
    - {fileID: 21300000, guid: 5d7caa58c205c714eb138637603002f5, type: 3}
    - {fileID: 21300000, guid: 41c972f757e827e47b2c9a56628f40a8, type: 3}
    - {fileID: 21300000, guid: bdcd05407b123dd428056408e3aa03df, type: 3}
    - {fileID: 21300000, guid: 5ff04c64bf8b28446a1f5edcd438d50e, type: 3}
    - {fileID: 21300000, guid: b1d8036f0a4ab5c41a6a8cc57249ef0b, type: 3}
    - {fileID: 21300000, guid: 25e9bb5fa794cc9449449dabe66f3547, type: 3}
    - {fileID: 21300000, guid: fbf65620070352849b5b37b7d6b818b3, type: 3}
    - {fileID: 21300000, guid: 8fc8e19c0fbac3a45a3f664692b12d43, type: 3}
    - {fileID: 21300000, guid: a43206ecdcacd2c4db2d9125b912b17d, type: 3}
    - {fileID: 21300000, guid: 287e35cfb354ea74aab2742061a078b5, type: 3}
    - {fileID: 21300000, guid: a1d557b324536b3449a1b7afebd4c8f3, type: 3}
    - {fileID: 21300000, guid: 3606b57c436ee8b47aa0e985954b74e4, type: 3}
    - {fileID: 21300000, guid: f6ac4b88af843d94b8dba21cf7271552, type: 3}
    - {fileID: 21300000, guid: 31cfac30c500d604e8ae8a6af422ab12, type: 3}
    - {fileID: 21300000, guid: 5905531394528b6489b774b0d18cf50d, type: 3}
    - {fileID: 21300000, guid: 49d0208a77bfe6b499bed9ff0f215c09, type: 3}
    - {fileID: 21300000, guid: f9a91dc82726d404eb95fe0bae85cfe3, type: 3}
    - {fileID: 21300000, guid: b6da08b2beaf72043be798d24689037e, type: 3}
    - {fileID: 21300000, guid: fbbd9f24e526a8244811e212cd97ecf0, type: 3}
    - {fileID: 21300000, guid: d82c8393fc1794342b9c9468fd2a4af3, type: 3}
    - {fileID: 21300000, guid: 3da356d53f1ee8341938e0bb8e76af5b, type: 3}
    - {fileID: 21300000, guid: a0338209e2dfea641a769680f7033bb2, type: 3}
    - {fileID: 21300000, guid: 2567b7db6a3e774499297a2668ac0fba, type: 3}
    - {fileID: 21300000, guid: 219a270a3d00a9c41a776b5f3ce2c9d8, type: 3}
    - {fileID: 21300000, guid: 61b62bcad2a278b4b90fe8572d3813c7, type: 3}
    - {fileID: 21300000, guid: b827569fb09b69b4ebf441085a94c3b4, type: 3}
    - {fileID: 21300000, guid: d6fcc1719aee67f41b81151e04877261, type: 3}
    - {fileID: 21300000, guid: bfe2df70b7df98f4b911df128fb32775, type: 3}
    - {fileID: 21300000, guid: 2443afbc1acfd194cbff8a551c7593c0, type: 3}
    - {fileID: 21300000, guid: 31a1faaff15c4414a842897811c2fb13, type: 3}
    - {fileID: 21300000, guid: 7e759c7cec0e57c459dd827cfed136ff, type: 3}
    - {fileID: 21300000, guid: 7161b7cf271e02b4a8396b31755953ba, type: 3}
    - {fileID: 21300000, guid: 0b68ee1d230c39445b0270a5d456ba8f, type: 3}
    - {fileID: 21300000, guid: 61fd78ec8865b6a49b300458f1998b85, type: 3}
    - {fileID: 21300000, guid: cd58fcef50fb0f542896fd50aacfec75, type: 3}
    - {fileID: 21300000, guid: 68b408331afa14a4e9650de803c3adc8, type: 3}
    - {fileID: 21300000, guid: 237275a2849cef149bb9da1bcb7c5eec, type: 3}
    - {fileID: 21300000, guid: d807a6cd68383c64e9e09d9f38e67a22, type: 3}
    - {fileID: 21300000, guid: 7af2cb787bc55954b89a3271121af7dd, type: 3}
    - {fileID: 21300000, guid: 73a37efd57aaa984fa38f6bfbb8a6057, type: 3}
    - {fileID: 21300000, guid: 99b8134c139638c43b9395384e1020d1, type: 3}
    - {fileID: 21300000, guid: fe2e90899232da742ae9c2bd66c89fd8, type: 3}
    - {fileID: 21300000, guid: e3f13b706d34c7a42be8fd3a708a6504, type: 3}
    - {fileID: 21300000, guid: 7743209fedbef98479293ab69935be7f, type: 3}
    - {fileID: 21300000, guid: c00508d52f6b96341aa90be2a8b37c4e, type: 3}
    - {fileID: 21300000, guid: 2e5339063a1d85349836b87bbf17bb55, type: 3}
    - {fileID: 21300000, guid: fa78b776cc72b5b4b9341ddc002eefe6, type: 3}
    - {fileID: 21300000, guid: fb0e2dd20ae26f144ae67969f2ff43d5, type: 3}
    - {fileID: 21300000, guid: a24bb62ca206ed14b90a1f138b55ac06, type: 3}
    - {fileID: 21300000, guid: 6addd7e80aee92f42a5c334c2fb42df6, type: 3}
    - {fileID: 21300000, guid: b89458fd9f81a5540ae0a20d4fd09d41, type: 3}
    - {fileID: 21300000, guid: 2cfcae8bde0d6ea4fabf1a2259de92a9, type: 3}
    - {fileID: 21300000, guid: 860836d664da7af429009cb2a5cce266, type: 3}
    - {fileID: 21300000, guid: 017275f47d03f5e42af6d831782526c1, type: 3}
    - {fileID: 21300000, guid: 2d702c8b316c9a0429ae118e8a43acb3, type: 3}
    - {fileID: 21300000, guid: 28534387ffb5c93498147693f22a3fe0, type: 3}
    - {fileID: 21300000, guid: 918953cc734539f47b3621a671a9607e, type: 3}
    - {fileID: 21300000, guid: 957e8dd59adac6546bb33566d0d7a752, type: 3}
    - {fileID: 21300000, guid: c655951da38d5bc49b6c023a2f255c8b, type: 3}
    - {fileID: 21300000, guid: 792039ca9a62fd24aa819b7ad79cbc28, type: 3}
    - {fileID: 21300000, guid: b61ed16487b37494ead745d0e04e9fda, type: 3}
    - {fileID: 21300000, guid: 3908dbf1a40ae9f48a07d738cb63fdd1, type: 3}
    - {fileID: 21300000, guid: 9dcc567ee0a33e449bb5e6262aee64d5, type: 3}
    - {fileID: 21300000, guid: 7a3a7876c25099a48a5bf8cff6205646, type: 3}
    - {fileID: 21300000, guid: 85a8b000eca267d4fb37913f9a58b79e, type: 3}
    - {fileID: 21300000, guid: 8d89dde87cc01ea45a223d37a7612c10, type: 3}
    - {fileID: 21300000, guid: 94f243002c1d3ce40a4e55ad20b3203a, type: 3}
    - {fileID: 21300000, guid: a72d4362190104547ae27cd41de1d12f, type: 3}
    - {fileID: 21300000, guid: aabaccd448589ac4c8908811dc885b0f, type: 3}
    - {fileID: 21300000, guid: b3c1701d3eb0aad4388ac05c617d0c80, type: 3}
    - {fileID: 21300000, guid: 42c78f2181cfe0c47af42988f41f9d2f, type: 3}
    - {fileID: 21300000, guid: ade9726db70406543af22412754f3412, type: 3}
    - {fileID: 21300000, guid: f533072b8cdba0843a1873f936b8334c, type: 3}
    - {fileID: 21300000, guid: b64483b5674a8df4eadaae9c4527ca7c, type: 3}
    - {fileID: 21300000, guid: 4da77bd7d8c469142adf0a7b458f4215, type: 3}
    - {fileID: 21300000, guid: 46d675cfa8ce58e458dc280dd3429f22, type: 3}
    - {fileID: 21300000, guid: a67a0d191e146494e941e5937d647c62, type: 3}
    - {fileID: 21300000, guid: b48c49ce00c62c548bfc3d78ba14db4d, type: 3}
    - {fileID: 21300000, guid: 8fbb7c04ee453464f821f50399764ffd, type: 3}
    - {fileID: 21300000, guid: 9bebc6d3297a296459fd55af6ed36773, type: 3}
    - {fileID: 21300000, guid: 03c955169d8743a4881a6a7934d04ecb, type: 3}
    - {fileID: 21300000, guid: fdeec72b26d37e24bbc55e15a938a72a, type: 3}
    - {fileID: 21300000, guid: 190daf0b9679aad48adba8c467c14c4f, type: 3}
    - {fileID: 21300000, guid: 052e196f111438a42b71df112c85b121, type: 3}
    - {fileID: 21300000, guid: acd98170e01fea84b98300502911274a, type: 3}
    - {fileID: 21300000, guid: d5f7513aa42fa5c448ad23e7d13c0eff, type: 3}
    - {fileID: 21300000, guid: 844161d7a4d12c141a3e4eb4bf762a32, type: 3}
    - {fileID: 21300000, guid: 9375b09da53ecdc4fa42cf08cd19520a, type: 3}
    - {fileID: 21300000, guid: 5aa9336ad3b4cb84d8ba6e3d4c30373b, type: 3}
    - {fileID: 21300000, guid: 2dcaaca1abfe0544e9f8b0f0a1916bf8, type: 3}
    - {fileID: 21300000, guid: eb00f4795b0ce29439218d1b646feee2, type: 3}
    - {fileID: 21300000, guid: 9a24257191925ec48a6ede33b34681a0, type: 3}
    - {fileID: 21300000, guid: db5fd1086bce48440a9c2251dc462298, type: 3}
    - {fileID: 21300000, guid: 709a6d7b2d2a2da4ba19c4b241a9847a, type: 3}
    - {fileID: 21300000, guid: 3df699dc4f265854abef6b864a3d7d4c, type: 3}
    - {fileID: 21300000, guid: 7217ab63dcb4c2345956345f22c2d40a, type: 3}
    - {fileID: 21300000, guid: 64d843e4ee6a2f94ca27fde4a7066e23, type: 3}
    - {fileID: 21300000, guid: 91324aef8b5d7dc43aa98938463a7424, type: 3}
    - {fileID: 21300000, guid: 76cf1f5438ecd3249a59d5628de6b89f, type: 3}
    - {fileID: 21300000, guid: a30d916df5912a94aa609229f9a94c0b, type: 3}
    - {fileID: 21300000, guid: dba56e4bf1fb7b749b6edf3e3231e37b, type: 3}
    - {fileID: 21300000, guid: f44ab9337efc5a44f811c0df4b0e19f9, type: 3}
    - {fileID: 21300000, guid: f386e8d51a88fc141abd288882b98a22, type: 3}
    - {fileID: 21300000, guid: ea28142c8c773814a83c038bc6077d0a, type: 3}
    - {fileID: 21300000, guid: 04169ed57cc3e514f9944a983c955ffe, type: 3}
    - {fileID: 21300000, guid: c60344cde27d12e47bff08027d40e7dc, type: 3}
    - {fileID: 21300000, guid: 9474df51d2261e049a8541f9737a2dce, type: 3}
    - {fileID: 21300000, guid: 244f930ff0297154ab9dbb59231da68c, type: 3}
    - {fileID: 21300000, guid: d0b00119cd222e74a971a107bf00cb54, type: 3}
    - {fileID: 21300000, guid: 59036deb659412845b1773bb843f0151, type: 3}
    - {fileID: 21300000, guid: 5664ea86575bf5946a64acda19de944f, type: 3}
    - {fileID: 21300000, guid: 43984a59b84d340459205aebc3b0ffa6, type: 3}
    - {fileID: 21300000, guid: c6d86d8807df3aa4d852db22f01d6e62, type: 3}
    - {fileID: 21300000, guid: 1cc8ecc20d382dc4f94a5b1a03a9e60d, type: 3}
    - {fileID: 21300000, guid: 917e5dc2611e08f4598b679b1ea8e566, type: 3}
    - {fileID: 21300000, guid: 9e1248ade598a5e4d8f3eab06386f5f1, type: 3}
    - {fileID: 21300000, guid: 7a2e013b4e4aad943b93f6a4dd58123d, type: 3}
    - {fileID: 21300000, guid: ae18cb400b7fbd34d9659325b9d63fbc, type: 3}
    - {fileID: 21300000, guid: 152f646881d51e242a967a398b1e3ff1, type: 3}
    - {fileID: 21300000, guid: e5a997b7e6a26a7469211c67a35512aa, type: 3}
    - {fileID: 21300000, guid: e3769a0aa0a22694299f1f74bb67d510, type: 3}
    - {fileID: 21300000, guid: 890b220797f05494ab0573899d390c6a, type: 3}
    - {fileID: 21300000, guid: d90862512201e5c418d434db8f210649, type: 3}
    - {fileID: 21300000, guid: 3270494571656e64a9691866fb924082, type: 3}
    - {fileID: 21300000, guid: 693a8839561dd6d448dd8103716dad55, type: 3}
    - {fileID: 21300000, guid: ffcc91eb824caa64ea13d3ea3faea186, type: 3}
    - {fileID: 21300000, guid: 9633d4244a80ef5488b5304c899208e0, type: 3}
    - {fileID: 21300000, guid: 5427f44415a3a7249858dba6887d7dd3, type: 3}
    - {fileID: 21300000, guid: 588a2e53560c2554f9faf4e1a88ba9cc, type: 3}
    - {fileID: 21300000, guid: f3843ad7ae78a8a48b0152d54fe48731, type: 3}
    - {fileID: 21300000, guid: a6ff2ffbb27b3c640bb0ff1021645f90, type: 3}
    - {fileID: 21300000, guid: 4117287425a5ccc4b8df97065ccc71ee, type: 3}
    - {fileID: 21300000, guid: dc5dba3117f196d4c94c8846f647925d, type: 3}
    - {fileID: 21300000, guid: 28e79110603f829448a794eaffee992b, type: 3}
    - {fileID: 21300000, guid: 00699ac88fe5f834d953991f6d0e2dd3, type: 3}
    - {fileID: 21300000, guid: fb5071c05ae1b0b45b6f19d0369343a7, type: 3}
    - {fileID: 21300000, guid: b2e87bae3aaddd14a83cc395f38bc3fc, type: 3}
    - {fileID: 21300000, guid: 425eeb67c750342439ad8a79b7e9e26f, type: 3}
    - {fileID: 21300000, guid: 80751073ad7e1c640b6914516ff9deae, type: 3}
    - {fileID: 21300000, guid: 127f0c2c6d788294a83ea8414b68bd4b, type: 3}
    - {fileID: 21300000, guid: 3b1642cff4d97e1499708da6bc2da8d5, type: 3}
    - {fileID: 21300000, guid: 613b7c9520e5f7c4991635a9237b1b40, type: 3}
    - {fileID: 21300000, guid: da2cee73870a3464bb7438b39f0e8f59, type: 3}
    - {fileID: 21300000, guid: b845238c47ca0e843acf5e8446cf849f, type: 3}
    - {fileID: 21300000, guid: 31b93535d3bd3cb4090eed998101c110, type: 3}
    - {fileID: 21300000, guid: 1e2e8c252f4076240bc09338063bc462, type: 3}
    - {fileID: 21300000, guid: b9b4a6471ba0c0848b1598dc0e170871, type: 3}
    - {fileID: 21300000, guid: 66696121ba8c95c45bcc5557ddfe1786, type: 3}
    - {fileID: 21300000, guid: 32063669235fa754691242d483ef8d84, type: 3}
    - {fileID: 21300000, guid: 670522703838fa14397a6598897569a0, type: 3}
    - {fileID: 21300000, guid: b6ca5379fc07dcc489317fb19fe7ebd0, type: 3}
    - {fileID: 21300000, guid: 1d06506cd3e41984db7437c6f6f51fea, type: 3}
    - {fileID: 21300000, guid: 60e33dce0c22abd4284ecb989573ce8a, type: 3}
    - {fileID: 21300000, guid: 6cc3a818be674564ba35760e8448f46d, type: 3}
    - {fileID: 21300000, guid: ffda4d022ca166548af9483e17936bb9, type: 3}
    - {fileID: 21300000, guid: 7673c0d5b04d61548a40475b45b5ccd4, type: 3}
    - {fileID: 21300000, guid: 741d2bf9bb4cefa419b51e6fbdcba82b, type: 3}
    - {fileID: 21300000, guid: f4437f0c8970a104ca330a50aaeb9215, type: 3}
    - {fileID: 21300000, guid: abcc8520b42804749bd294d13c8cb28e, type: 3}
    - {fileID: 21300000, guid: 4ace798be78da504eb7be41d9c48aab5, type: 3}
    - {fileID: 21300000, guid: a5feca8a84369bf47a4067bb546a2299, type: 3}
    - {fileID: 21300000, guid: be2e2295e3c705143902dc0b8f643dc3, type: 3}
    - {fileID: 21300000, guid: fabeb7ee14344f344b97bc6a8e0a482a, type: 3}
    - {fileID: 21300000, guid: b078e7dc8d1c0624b846579faaf2b10f, type: 3}
  m_AnimationClipSettings:
    serializedVersion: 2
    m_AdditiveReferencePoseClip: {fileID: 0}
    m_AdditiveReferencePoseTime: 0
    m_StartTime: 0
    m_StopTime: 3.35
    m_OrientationOffsetY: 0
    m_Level: 0
    m_CycleOffset: 0
    m_HasAdditiveReferencePose: 0
    m_LoopTime: 1
    m_LoopBlend: 0
    m_LoopBlendOrientation: 0
    m_LoopBlendPositionY: 0
    m_LoopBlendPositionXZ: 0
    m_KeepOriginalOrientation: 0
    m_KeepOriginalPositionY: 1
    m_KeepOriginalPositionXZ: 0
    m_HeightFromFeet: 0
    m_Mirror: 0
  m_EditorCurves: []
  m_EulerEditorCurves: []
  m_HasGenericRootTransform: 0
  m_HasMotionFloatCurves: 0
  m_Events: []
