%YAML 1.1
%TAG !u! tag:unity3d.com,2011:
--- !u!1 &7000119396661838125
GameObject:
  m_ObjectHideFlags: 0
  m_CorrespondingSourceObject: {fileID: 0}
  m_PrefabInstance: {fileID: 0}
  m_PrefabAsset: {fileID: 0}
  serializedVersion: 6
  m_Component:
  - component: {fileID: 7000119396661838127}
  - component: {fileID: 7000119396661838124}
  m_Layer: 5
  m_Name: ScoreManager
  m_TagString: Untagged
  m_Icon: {fileID: 0}
  m_NavMeshLayer: 0
  m_StaticEditorFlags: 0
  m_IsActive: 1
--- !u!224 &7000119396661838127
RectTransform:
  m_ObjectHideFlags: 0
  m_CorrespondingSourceObject: {fileID: 0}
  m_PrefabInstance: {fileID: 0}
  m_PrefabAsset: {fileID: 0}
  m_GameObject: {fileID: 7000119396661838125}
  m_LocalRotation: {x: -0, y: -0, z: -0, w: 1}
  m_LocalPosition: {x: 0, y: 0, z: 99.541}
  m_LocalScale: {x: 0.0708522, y: 0.0708522, z: 0.0708522}
  m_Children: []
  m_Father: {fileID: 0}
  m_RootOrder: 0
  m_LocalEulerAnglesHint: {x: 0, y: 0, z: 0}
  m_AnchorMin: {x: 0.5, y: 0.5}
  m_AnchorMax: {x: 0.5, y: 0.5}
  m_AnchoredPosition: {x: 0, y: 0}
  m_SizeDelta: {x: 100, y: 100}
  m_Pivot: {x: 0.5, y: 0.5}
--- !u!114 &7000119396661838124
MonoBehaviour:
  m_ObjectHideFlags: 0
  m_CorrespondingSourceObject: {fileID: 0}
  m_PrefabInstance: {fileID: 0}
  m_PrefabAsset: {fileID: 0}
  m_GameObject: {fileID: 7000119396661838125}
  m_Enabled: 1
  m_EditorHideFlags: 0
  m_Script: {fileID: 11500000, guid: c20f9d93e8f1fad49bd6c2400f69b906, type: 3}
  m_Name: 
  m_EditorClassIdentifier: 
  scoreDetails: {fileID: 0}
  Kit1Score: 0
  TotalKit1Score: 0
  wrongIndicator: {fileID: 0}
  rightIndicator: {fileID: 0}
  nextButton: {fileID: 0}
  prevButton: {fileID: 0}
  circuitHandler: {fileID: 0}
  progsBar1: {fileID: 0}
  progsBar2: {fileID: 0}
  progsBar3: {fileID: 0}
  progsBar4: {fileID: 0}
  progressBar: {fileID: 0}
  ScoreDisplayCount: 0
  progressAnim: {fileID: 0}
  touchStart: {x: 0, y: 0}
  touchEnd: {x: 0, y: 0}
  inputDir: 
  profileHandlerScript: {fileID: 0}
