%YAML 1.1
%TAG !u! tag:unity3d.com,2011:
--- !u!1 &3619432876465376635
GameObject:
  m_ObjectHideFlags: 0
  m_CorrespondingSourceObject: {fileID: 0}
  m_PrefabInstance: {fileID: 0}
  m_PrefabAsset: {fileID: 0}
  serializedVersion: 6
  m_Component:
  - component: {fileID: 3619432876465376633}
  - component: {fileID: 3619432876465376632}
  - component: {fileID: 3619432876465376638}
  - component: {fileID: 3619432876465376639}
  m_Layer: 0
  m_Name: scriptHandler
  m_TagString: Untagged
  m_Icon: {fileID: 0}
  m_NavMeshLayer: 0
  m_StaticEditorFlags: 0
  m_IsActive: 1
--- !u!4 &3619432876465376633
Transform:
  m_ObjectHideFlags: 0
  m_CorrespondingSourceObject: {fileID: 0}
  m_PrefabInstance: {fileID: 0}
  m_PrefabAsset: {fileID: 0}
  m_GameObject: {fileID: 3619432876465376635}
  m_LocalRotation: {x: 0, y: 0, z: 0, w: 1}
  m_LocalPosition: {x: 273.15082, y: 649.3358, z: -9.020049}
  m_LocalScale: {x: 1, y: 1, z: 1}
  m_Children: []
  m_Father: {fileID: 0}
  m_RootOrder: 0
  m_LocalEulerAnglesHint: {x: 0, y: 0, z: 0}
--- !u!114 &3619432876465376632
MonoBehaviour:
  m_ObjectHideFlags: 0
  m_CorrespondingSourceObject: {fileID: 0}
  m_PrefabInstance: {fileID: 0}
  m_PrefabAsset: {fileID: 0}
  m_GameObject: {fileID: 3619432876465376635}
  m_Enabled: 1
  m_EditorHideFlags: 0
  m_Script: {fileID: 11500000, guid: 22e3f26cc67418c47ae6f34528380ec0, type: 3}
  m_Name: 
  m_EditorClassIdentifier: 
  ScanImages: {fileID: 0}
--- !u!114 &3619432876465376638
MonoBehaviour:
  m_ObjectHideFlags: 0
  m_CorrespondingSourceObject: {fileID: 0}
  m_PrefabInstance: {fileID: 0}
  m_PrefabAsset: {fileID: 0}
  m_GameObject: {fileID: 3619432876465376635}
  m_Enabled: 1
  m_EditorHideFlags: 0
  m_Script: {fileID: 11500000, guid: 77257d8e41d02f04b9c8d14e1318a516, type: 3}
  m_Name: 
  m_EditorClassIdentifier: 
  innerImg: {fileID: 0}
  middleImg: {fileID: 0}
  outerImg: {fileID: 0}
  speed1: 0
  speed2: 0
  speed3: 0
  clockWise: 0
  antiClockWise: 0
--- !u!114 &3619432876465376639
MonoBehaviour:
  m_ObjectHideFlags: 0
  m_CorrespondingSourceObject: {fileID: 0}
  m_PrefabInstance: {fileID: 0}
  m_PrefabAsset: {fileID: 0}
  m_GameObject: {fileID: 3619432876465376635}
  m_Enabled: 1
  m_EditorHideFlags: 0
  m_Script: {fileID: 11500000, guid: cc1bc4056f5d9794aafcf7b21e1d23c1, type: 3}
  m_Name: 
  m_EditorClassIdentifier: 
  Circuit: {fileID: 0}
  OriginalCircuitPos: {x: -0.07494383, y: 0, z: -0.005763882}
  gameCamera: {fileID: 0}
