%YAML 1.1
%TAG !u! tag:unity3d.com,2011:
--- !u!78 &1
TagManager:
  serializedVersion: 2
  tags:
  - slider
  - ballTrail
  - cam
  - b4
  - b2
  - b1
  - b3
  - electron
  - ImageTarget
  - sPoint
  - Ocean
  - ship
  - Electron1
  - circuit2
  - battery2
  - battery1
  - battery4
  - battery3
  - Electron2
  - resistance
  layers:
  - Default
  - TransparentFX
  - Ignore Raycast
  - 
  - Water
  - UI
  - 
  - 
  - PostProcessing
  - IntroLayer
  - HideFromArCam
  - particlelayer
  - 
  - 
  - 
  - 
  - 
  - 
  - 
  - 
  - 
  - 
  - 
  - 
  - 
  - 
  - 
  - 
  - 
  - 
  - 
  - 
  m_SortingLayers:
  - name: Default
    uniqueID: 0
    locked: 0
  - name: Background
    uniqueID: 2093400555
    locked: 0
  - name: Foreground
    uniqueID: 34100165
    locked: 0
