{
  "project_info": {
    "project_number": "238724580441",
    "firebase_url": "https://playnino-ca8a5.firebaseio.com",
    "project_id": "playnino-ca8a5",
    "storage_bucket": "playnino-ca8a5.appspot.com"
  },
  "client": [
    {
      "client_info": {
        "mobilesdk_app_id": "1:238724580441:android:cf3f37b6fca806cd",
        "android_client_info": {
          "package_name": "com.evobi.playnino"
        }
      },
      "oauth_client": [
        {
          "client_id": "238724580441-3kppjpcn9csuqvffthhj9p99s8lis8l3.apps.googleusercontent.com",
          "client_type": 3
        }
      ],
      "api_key": [
        {
          "current_key": "AIzaSyCNjk3-0XyCCpomLKNUetFBZqmlr_Kg_TM"
        }
      ],
      "services": {
        "appinvite_service": {
          "other_platform_oauth_client": [
            {
              "client_id": "238724580441-3kppjpcn9csuqvffthhj9p99s8lis8l3.apps.googleusercontent.com",
              "client_type": 3
            }
          ]
        }
      }
    }
  ],
  "configuration_version": "1"
}